lab1/register_shift_v5/register_waveform.vcd
$date
     Mar 10, 2017       15:15:38
$end

$version
 SystemC 2.3.1-Accellera --- Feb 17 2017 10:35:20
$end

$timescale
     1 ps
$end

$scope module SystemC $end
$var wire    1  aaaaa  clock       $end
$var wire    1  aaaab  reset       $end
$var wire    1  aaaac  sreset_n       $end
$var wire    1  aaaad  ena       $end
$var wire    1  aaaae  c_in       $end
$var wire    8  aaaaf  d_out [7:0]  $end
$var wire    1  aaaag  c_out       $end
$upscope $end
$enddefinitions  $end

$comment
All initial values are dumped below at time 0 sec = 0 timescale units.
$end

$dumpvars
1aaaaa
1aaaab
1aaaac
1aaaad
0aaaae
b0 aaaaf
0aaaag
$end

#2000
0aaaaa

#4000
1aaaaa

#5000
0aaaab
0aaaad
1aaaae

#6000
0aaaaa

#8000
1aaaaa

#9000
1aaaad

#10000
0aaaaa

#12000
1aaaaa
b1 aaaaf

#14000
0aaaaa

#16000
1aaaaa
b11 aaaaf

#18000
0aaaaa

#20000
1aaaaa
b111 aaaaf

#22000
0aaaaa

#24000
1aaaaa
b1111 aaaaf

#26000
0aaaaa

#28000
1aaaaa
b11111 aaaaf

#30000
0aaaaa

#32000
1aaaaa
b111111 aaaaf

#34000
0aaaaa

#36000
1aaaaa
b1111111 aaaaf

#38000
0aaaaa

#40000
1aaaaa
b11111111 aaaaf

#42000
0aaaaa

#44000
1aaaaa
1aaaag

#46000
0aaaaa

#47000
1aaaab
b0 aaaaf
0aaaag

#48000
1aaaaa

#50000
0aaaaa

#52000
1aaaaa

#54000
0aaaaa

#56000
1aaaaa

#58000
0aaaaa

#59000
0aaaab

#60000
1aaaaa
b1 aaaaf

#62000
0aaaaa

#64000
1aaaaa
b11 aaaaf

#66000
0aaaaa

#67000
0aaaac

#68000
1aaaaa
b0 aaaaf

