lab3/fifo_template/register_waveform.vcd
$date
     Mar 17, 2017       10:43:38
$end

$version
 SystemC 2.3.1-Accellera --- Feb 17 2017 10:35:20
$end

$timescale
     1 ps
$end

$scope module SystemC $end
$var wire    1  aaaaa  clock       $end
$var wire    1  aaaab  reset       $end
$var wire    1  aaaac  sreset_n       $end
$var wire    1  aaaad  up_down       $end
$var wire    8  aaaae  dout [7:0]  $end
$upscope $end
$enddefinitions  $end

$comment
All initial values are dumped below at time 0 sec = 0 timescale units.
$end

$dumpvars
1aaaaa
1aaaab
1aaaac
1aaaad
b0 aaaae
$end

#2000
0aaaaa

#4000
1aaaaa

#6000
0aaaaa
0aaaab
0aaaac

#8000
1aaaaa

#10000
0aaaaa

#12000
1aaaaa

#14000
0aaaaa
1aaaac

#16000
1aaaaa
b1 aaaae

#18000
0aaaaa

#20000
1aaaaa
b10 aaaae

#22000
0aaaaa

#24000
1aaaaa
b11 aaaae

#26000
0aaaaa

#28000
1aaaaa
b100 aaaae

#30000
0aaaaa

#32000
1aaaaa
b101 aaaae

#34000
0aaaaa

#36000
1aaaaa
b110 aaaae

#38000
0aaaaa

#40000
1aaaaa
b111 aaaae

#42000
0aaaaa

#44000
1aaaaa
b1000 aaaae

#46000
0aaaaa
0aaaad

#48000
1aaaaa
b111 aaaae

#50000
0aaaaa

#52000
1aaaaa
b110 aaaae

#54000
0aaaaa

#56000
1aaaaa
b101 aaaae

#58000
0aaaaa

#60000
1aaaaa
b100 aaaae

#62000
0aaaaa

#64000
1aaaaa
b11 aaaae

#66000
0aaaaa

#68000
1aaaaa
b10 aaaae

#70000
0aaaaa

#72000
1aaaaa
b1 aaaae

#74000
0aaaaa

#76000
1aaaaa
b0 aaaae

#78000
0aaaaa

#80000
1aaaaa
b11111111 aaaae

#82000
0aaaaa

#83000
1aaaab
b0 aaaae

#84000
1aaaaa

#86000
0aaaaa

#88000
1aaaaa

#90000
0aaaaa

#91000
0aaaab

#92000
1aaaaa
b11111111 aaaae

#94000
0aaaaa

#96000
1aaaaa
b11111110 aaaae

#98000
0aaaaa

#99000
0aaaac

#100000
1aaaaa
b0 aaaae

