lab3/fifo_template_hierarchy/fifo_waveform.vcd
$date
     Jun 13, 2017       16:08:02
$end

$version
 SystemC 2.3.1-Accellera --- Feb 17 2017 10:35:20
$end

$timescale
     1 ps
$end

$scope module SystemC $end
$var wire    1  aaaaa  clock       $end
$var wire    1  aaaab  reset       $end
$var wire    8  aaaac  in [7:0]  $end
$var wire    1  aaaad  push       $end
$var wire    1  aaaae  pop       $end
$var wire    8  aaaaf  out [7:0]  $end
$var wire    1  aaaag  empty       $end
$var wire    1  aaaah  full       $end
$var wire   32  aaaai  elements [31:0]  $end
$var wire    1  aaaaj  is_wr       $end
$var wire    1  aaaak  alm_empty       $end
$var wire    1  aaaal  alm_full       $end
$upscope $end
$enddefinitions  $end

$comment
All initial values are dumped below at time 0 sec = 0 timescale units.
$end

$dumpvars
1aaaaa
1aaaab
b0 aaaac
0aaaad
0aaaae
b0 aaaaf
0aaaag
0aaaah
b0 aaaai
0aaaaj
0aaaak
1aaaal
$end

#2000
0aaaaa
1aaaag
1aaaak
0aaaal

#4000
1aaaaa

#6000
0aaaaa
0aaaab
b1100001 aaaac
1aaaad

#8000
1aaaaa
0aaaag
b1 aaaai
1aaaaj

#10000
0aaaaa
b1100010 aaaac

#12000
1aaaaa
b10 aaaai
0aaaaj

#14000
0aaaaa
b1100011 aaaac

#16000
1aaaaa
b11 aaaai
1aaaaj
0aaaak

#18000
0aaaaa
b1100100 aaaac

#20000
1aaaaa
b100 aaaai
0aaaaj

#22000
0aaaaa
b1100101 aaaac

#24000
1aaaaa
b101 aaaai
1aaaaj
1aaaal

#26000
0aaaaa
b1100110 aaaac

#28000
1aaaaa
b110 aaaai
0aaaaj

#30000
0aaaaa
b1100111 aaaac

#32000
1aaaaa
1aaaah
b111 aaaai
1aaaaj

#34000
0aaaaa
b1101000 aaaac

#36000
1aaaaa

#38000
0aaaaa
b1100011 aaaac
1aaaae

#40000
1aaaaa
b1100001 aaaaf
0aaaah
b110 aaaai

#42000
0aaaaa

#44000
1aaaaa
b1100010 aaaaf
0aaaaj

#46000
0aaaaa

#48000
1aaaaa
b1100011 aaaaf
1aaaaj

#50000
0aaaaa

#52000
1aaaaa
b1100100 aaaaf
0aaaaj

#54000
0aaaaa

#56000
1aaaaa
b1100101 aaaaf
1aaaaj

#58000
0aaaaa

#60000
1aaaaa
b1100110 aaaaf
0aaaaj

#62000
0aaaaa

#64000
1aaaaa
b1100111 aaaaf
1aaaaj

#66000
0aaaaa

#68000
1aaaaa
b1100011 aaaaf
0aaaaj

